…
#> Chain 4 Iteration: 1500 / 2000 [ 75%]  (Sampling) 
#> Chain 4 Iteration: 1600 / 2000 [ 80%]  (Sampling) 
#> Chain 4 Iteration: 1700 / 2000 [ 85%]  (Sampling) 
#> Chain 4 Iteration: 1800 / 2000 [ 90%]  (Sampling) 
#> Chain 4 Iteration: 1900 / 2000 [ 95%]  (Sampling) 
#> Chain 4 Iteration: 2000 / 2000 [100%]  (Sampling) 
#> Chain 4 finished in 2.7 seconds.
#> 
#> All 4 chains finished successfully.
#> Mean chain execution time: 3.6 seconds.
#> Total execution time: 14.6 seconds.
#> 
#> Warning: 137 of 4000 (3.0%) transitions ended with a divergence.
#> See https://mc-stan.org/misc/warnings for details.
#> # A tibble: 1,076 × 10
#>    variable        mean    median     sd    mad       q5      q95  rhat ess_bulk
#>    <chr>          <dbl>     <dbl>  <dbl>  <dbl>    <dbl>    <dbl> <dbl>    <dbl>
#>  1 lp__       -1363.     -1.36e+3 1.46   1.27   -1.37e+3 -1.36e+3  1.01     602.
#>  2 lxi[1]        -2.64   -2.31e+0 1.33   1.15   -5.31e+0 -1.14e+0  1.01     209.
#>  3 phi[1]         0.721   7.18e-1 0.0554 0.0546  6.32e-1  8.15e-1  1.01    1155.
#>  4 beta_r[1]      3.38    3.38e+0 0.0770 0.0777  3.26e+0  3.51e+0  1.01     753.
#>  5 beta_t[1]     -0.180  -2.63e-1 0.400  0.415  -6.96e-1  5.89e-1  1.02     194.
#>  6 xi[1]         -0.124  -9.94e-2 0.102  0.109  -3.20e-1 -4.93e-3  1.01     209.
#>  7 log_rec[1]     3.38    3.38e+0 0.0770 0.0777  3.26e+0  3.51e+0  1.01     753.
#>  8 log_rec[2]     3.38    3.38e+0 0.0770 0.0777  3.26e+0  3.51e+0  1.01     753.
#>  9 log_rec[3]     3.38    3.38e+0 0.0770 0.0777  3.26e+0  3.51e+0  1.01     753.
#> 10 log_rec[4]     3.38    3.38e+0 0.0770 0.0777  3.26e+0  3.51e+0  1.01     753.
#> # ℹ 1,066 more rows
#> # ℹ 1 more variable: ess_tail <dbl>
```
