Fit a GLM based SDM — fit_sdm • drmr
…
#> Chain 4 Iteration: 1500 / 2000 [ 75%]  (Sampling) 
#> Chain 4 Iteration: 1600 / 2000 [ 80%]  (Sampling) 
#> Chain 4 Iteration: 1700 / 2000 [ 85%]  (Sampling) 
#> Chain 4 Iteration: 1800 / 2000 [ 90%]  (Sampling) 
#> Chain 4 Iteration: 1900 / 2000 [ 95%]  (Sampling) 
#> Chain 4 Iteration: 2000 / 2000 [100%]  (Sampling) 
#> Chain 4 finished in 1.9 seconds.
#> 
#> All 4 chains finished successfully.
#> Mean chain execution time: 2.0 seconds.
#> Total execution time: 8.4 seconds.
#> 
#> Warning: 39 of 4000 (1.0%) transitions ended with a divergence.
#> See https://mc-stan.org/misc/warnings for details.
#> # A tibble: 706 × 10
#>    variable       mean    median     sd    mad        q5      q95  rhat ess_bulk
#>    <chr>         <dbl>     <dbl>  <dbl>  <dbl>     <dbl>    <dbl> <dbl>    <dbl>
#>  1 lp__      -1366.    -1366.    1.47   1.26   -1369.    -1.36e+3  1.01     711.
#>  2 lxi[1]       -2.59     -2.25  1.37   1.19      -5.31  -9.37e-1  1.03     121.
#>  3 phi[1]        0.721     0.718 0.0557 0.0534     0.634  8.17e-1  1.00    1313.
#>  4 beta_r[1]     3.90      3.90  0.0772 0.0764     3.77   4.02e+0  1.00    1543.
#>  5 beta_t[1]    -0.128    -0.243 0.483  0.450     -0.694  8.21e-1  1.03     109.
#>  6 xi[1]        -0.138    -0.106 0.123  0.116     -0.392 -4.96e-3  1.03     121.
#>  7 rho[1]        0.340     0.339 0.0244 0.0240     0.300  3.80e-1  1.00    3993.
#>  8 rho[2]        0.340     0.339 0.0244 0.0240     0.300  3.80e-1  1.00    3993.
#>  9 rho[3]        0.340     0.339 0.0244 0.0240     0.300  3.80e-1  1.00    3993.
#> 10 rho[4]        0.340     0.339 0.0244 0.0240     0.300  3.80e-1  1.00    3993.
#> # ℹ 696 more rows
#> # ℹ 1 more variable: ess_tail <dbl>
…
